{"count":246,"next":"https://readthedocs.org/api/v3/projects/vmongewiki/versions/latest/builds/?limit=10&offset=10","previous":null,"results":[{"_links":{"_self":"https://readthedocs.org/api/v3/projects/vmongewiki/builds/21600907/","project":"https://readthedocs.org/api/v3/projects/vmongewiki/","version":"https://readthedocs.org/api/v3/projects/vmongewiki/versions/latest/"},"commit":"5f86fb6eafa4a523375bd5f67bce978dd7cdc624","created":"2023-08-14T08:58:35.757886Z","duration":62,"error":"","finished":"2023-08-14T08:59:37.757886Z","id":21600907,"project":"vmongewiki","state":{"code":"finished","name":"Finished"},"success":true,"urls":{"build":"https://readthedocs.org/projects/vmongewiki/builds/21600907/","project":"https://readthedocs.org/projects/vmongewiki/","version":"https://readthedocs.org/dashboard/vmongewiki/version/latest/edit/"},"version":"latest"},{"_links":{"_self":"https://readthedocs.org/api/v3/projects/vmongewiki/builds/21600799/","project":"https://readthedocs.org/api/v3/projects/vmongewiki/","version":"https://readthedocs.org/api/v3/projects/vmongewiki/versions/latest/"},"commit":"5f86fb6eafa4a523375bd5f67bce978dd7cdc624","created":"2023-08-14T08:45:33.723543Z","duration":59,"error":"","finished":"2023-08-14T08:46:32.723543Z","id":21600799,"project":"vmongewiki","state":{"code":"finished","name":"Finished"},"success":true,"urls":{"build":"https://readthedocs.org/projects/vmongewiki/builds/21600799/","project":"https://readthedocs.org/projects/vmongewiki/","version":"https://readthedocs.org/dashboard/vmongewiki/version/latest/edit/"},"version":"latest"},{"_links":{"_self":"https://readthedocs.org/api/v3/projects/vmongewiki/builds/21600760/","project":"https://readthedocs.org/api/v3/projects/vmongewiki/","version":"https://readthedocs.org/api/v3/projects/vmongewiki/versions/latest/"},"commit":"5f86fb6eafa4a523375bd5f67bce978dd7cdc624","created":"2023-08-14T08:42:32.314263Z","duration":59,"error":"","finished":"2023-08-14T08:43:31.314263Z","id":21600760,"project":"vmongewiki","state":{"code":"finished","name":"Finished"},"success":true,"urls":{"build":"https://readthedocs.org/projects/vmongewiki/builds/21600760/","project":"https://readthedocs.org/projects/vmongewiki/","version":"https://readthedocs.org/dashboard/vmongewiki/version/latest/edit/"},"version":"latest"},{"_links":{"_self":"https://readthedocs.org/api/v3/projects/vmongewiki/builds/21600743/","project":"https://readthedocs.org/api/v3/projects/vmongewiki/","version":"https://readthedocs.org/api/v3/projects/vmongewiki/versions/latest/"},"commit":"5f86fb6eafa4a523375bd5f67bce978dd7cdc624","created":"2023-08-14T08:41:11.306377Z","duration":60,"error":"","finished":"2023-08-14T08:42:11.306377Z","id":21600743,"project":"vmongewiki","state":{"code":"finished","name":"Finished"},"success":true,"urls":{"build":"https://readthedocs.org/projects/vmongewiki/builds/21600743/","project":"https://readthedocs.org/projects/vmongewiki/","version":"https://readthedocs.org/dashboard/vmongewiki/version/latest/edit/"},"version":"latest"},{"_links":{"_self":"https://readthedocs.org/api/v3/projects/vmongewiki/builds/21600543/","project":"https://readthedocs.org/api/v3/projects/vmongewiki/","version":"https://readthedocs.org/api/v3/projects/vmongewiki/versions/latest/"},"commit":"5f86fb6eafa4a523375bd5f67bce978dd7cdc624","created":"2023-08-14T08:21:50.211708Z","duration":60,"error":"","finished":"2023-08-14T08:22:50.211708Z","id":21600543,"project":"vmongewiki","state":{"code":"finished","name":"Finished"},"success":true,"urls":{"build":"https://readthedocs.org/projects/vmongewiki/builds/21600543/","project":"https://readthedocs.org/projects/vmongewiki/","version":"https://readthedocs.org/dashboard/vmongewiki/version/latest/edit/"},"version":"latest"},{"_links":{"_self":"https://readthedocs.org/api/v3/projects/vmongewiki/builds/21600535/","project":"https://readthedocs.org/api/v3/projects/vmongewiki/","version":"https://readthedocs.org/api/v3/projects/vmongewiki/versions/latest/"},"commit":"5f86fb6eafa4a523375bd5f67bce978dd7cdc624","created":"2023-08-14T08:21:08.682609Z","duration":67,"error":"","finished":"2023-08-14T08:22:15.682609Z","id":21600535,"project":"vmongewiki","state":{"code":"finished","name":"Finished"},"success":true,"urls":{"build":"https://readthedocs.org/projects/vmongewiki/builds/21600535/","project":"https://readthedocs.org/projects/vmongewiki/","version":"https://readthedocs.org/dashboard/vmongewiki/version/latest/edit/"},"version":"latest"},{"_links":{"_self":"https://readthedocs.org/api/v3/projects/vmongewiki/builds/21600504/","project":"https://readthedocs.org/api/v3/projects/vmongewiki/","version":"https://readthedocs.org/api/v3/projects/vmongewiki/versions/latest/"},"commit":"5f86fb6eafa4a523375bd5f67bce978dd7cdc624","created":"2023-08-14T08:20:00.161215Z","duration":65,"error":"","finished":"2023-08-14T08:21:05.161215Z","id":21600504,"project":"vmongewiki","state":{"code":"finished","name":"Finished"},"success":true,"urls":{"build":"https://readthedocs.org/projects/vmongewiki/builds/21600504/","project":"https://readthedocs.org/projects/vmongewiki/","version":"https://readthedocs.org/dashboard/vmongewiki/version/latest/edit/"},"version":"latest"},{"_links":{"_self":"https://readthedocs.org/api/v3/projects/vmongewiki/builds/21600500/","project":"https://readthedocs.org/api/v3/projects/vmongewiki/","version":"https://readthedocs.org/api/v3/projects/vmongewiki/versions/latest/"},"commit":"5f86fb6eafa4a523375bd5f67bce978dd7cdc624","created":"2023-08-14T08:19:44.466419Z","duration":21,"error":"Build cancelled by user.","finished":"2023-08-14T08:20:05.466419Z","id":21600500,"project":"vmongewiki","state":{"code":"cancelled","name":"Cancelled"},"success":false,"urls":{"build":"https://readthedocs.org/projects/vmongewiki/builds/21600500/","project":"https://readthedocs.org/projects/vmongewiki/","version":"https://readthedocs.org/dashboard/vmongewiki/version/latest/edit/"},"version":"latest"},{"_links":{"_self":"https://readthedocs.org/api/v3/projects/vmongewiki/builds/21600499/","project":"https://readthedocs.org/api/v3/projects/vmongewiki/","version":"https://readthedocs.org/api/v3/projects/vmongewiki/versions/latest/"},"commit":"5f86fb6eafa4a523375bd5f67bce978dd7cdc624","created":"2023-08-14T08:19:31.177129Z","duration":16,"error":"Build cancelled by user.","finished":"2023-08-14T08:19:47.177129Z","id":21600499,"project":"vmongewiki","state":{"code":"cancelled","name":"Cancelled"},"success":false,"urls":{"build":"https://readthedocs.org/projects/vmongewiki/builds/21600499/","project":"https://readthedocs.org/projects/vmongewiki/","version":"https://readthedocs.org/dashboard/vmongewiki/version/latest/edit/"},"version":"latest"},{"_links":{"_self":"https://readthedocs.org/api/v3/projects/vmongewiki/builds/21600467/","project":"https://readthedocs.org/api/v3/projects/vmongewiki/","version":"https://readthedocs.org/api/v3/projects/vmongewiki/versions/latest/"},"commit":"5f86fb6eafa4a523375bd5f67bce978dd7cdc624","created":"2023-08-14T08:16:40.506631Z","duration":61,"error":"","finished":"2023-08-14T08:17:41.506631Z","id":21600467,"project":"vmongewiki","state":{"code":"finished","name":"Finished"},"success":true,"urls":{"build":"https://readthedocs.org/projects/vmongewiki/builds/21600467/","project":"https://readthedocs.org/projects/vmongewiki/","version":"https://readthedocs.org/dashboard/vmongewiki/version/latest/edit/"},"version":"latest"}]}
